====================
 System property BELSORP-max Ver1.3.5
====================
"Instrument S/N:"	00462
"Vs/ml:"	24.529
=======================
 Measurement condition
=======================
"Adsorptive:"	Kr
"Meas. Temp./K:"	77.35
"Molecular cross-sectional area:"	0
"Molecular weight of adsorbate:"	0.00
"Equilibrium time/sec:"	0
"Measurement mode:"	2
====================
 Sample information
====================
"Sample weight/g:"	0.53800
"Comment1:"	"2U56"
"Comment2:"	"KLJ"
"Comment3:"	"1st Run"
"Comment4:"	"Leak amount : 9.529E-3Pa/Min, Vacuum degree before measurement:3.524E-5Pa"
"as/m2 g-1:"	0.0000
"Molecular weight of adsorbent:"	0.00
====================
 Time and dead volume
====================
"Date of measurement:"	20/09/10
"Time of measurement:"	7:29:28
"Slope of dead volume:"	-1.3743E-6
"Intercept of dead volume:"	2.5676E+1
"Average dead volume:"	2.5593E+1
====================
 Adsorption data
====================
"No."	"Pe/kPa"	"P0/kPa"	"Vd/ml"	"V/ml(STP) g-1"	
1	2.6271E-4	3.3100E-1	25.501	1.9280E-3	
2	3.6574E-4	3.3100E-1	25.456	4.3237E-3	
3	4.4805E-4	3.3100E-1	25.413	5.5090E-3	
4	8.6963E-4	3.3100E-1	25.254	1.1577E-2	
5	2.1131E-3	3.3100E-1	25.163	1.5217E-2	
6	2.7899E-3	3.3100E-1	25.139	1.5942E-2	
7	7.6760E-3	3.3100E-1	25.106	1.7920E-2	
8	1.8645E-2	3.3100E-1	25.088	1.9378E-2	
9	3.0160E-2	3.3100E-1	25.076	2.0309E-2	
10	3.9824E-2	3.3100E-1	25.068	2.0918E-2	
11	5.7211E-2	3.3100E-1	25.062	2.1908E-2	
12	7.2811E-2	3.3100E-1	25.055	2.2811E-2	
13	8.9914E-2	3.3100E-1	25.048	2.4047E-2	
14	9.9301E-2	3.3100E-1	25.032	2.8923E-2	
15	1.1121E-1	3.3100E-1	25.018	3.3034E-2	
16	1.3459E-1	3.3100E-1	25.010	3.5507E-2	
17	1.5993E-1	3.3100E-1	25.002	3.8408E-2	
18	1.8311E-1	3.3100E-1	24.993	4.2279E-2	
19	2.0018E-1	3.3100E-1	24.979	5.1481E-2	
20	2.1470E-1	3.3100E-1	24.968	6.3289E-2	
21	2.2575E-1	3.3100E-1	24.956	7.8885E-2	
0	0	0	0	0	
====================
 Desorption data
====================
"No."	"Pe/kPa"	"P0/kPa"	"Vd/ml"	"V/ml(STP) g-1"	
1	2.1346E-1	3.3100E-1	24.947	6.8810E-2	
2	2.0065E-1	3.3100E-1	24.936	5.9254E-2	
3	1.9160E-1	3.3100E-1	24.923	5.0970E-2	
4	1.7637E-1	3.3100E-1	24.914	4.6147E-2	
5	1.5917E-1	3.3100E-1	24.905	4.2432E-2	
0	0	0	0	0	
