====================
 System property BELSORP-max Ver1.3.5
====================
"Instrument S/N:"	00462
"Vs/ml:"	24.529
=======================
 Measurement condition
=======================
"Adsorptive:"	Kr
"Meas. Temp./K:"	77.35
"Molecular cross-sectional area:"	0
"Molecular weight of adsorbate:"	0.00
"Equilibrium time/sec:"	0
"Measurement mode:"	2
====================
 Sample information
====================
"Sample weight/g:"	0.54200
"Comment1:"	"2U99"
"Comment2:"	"BV"
"Comment3:"	"1st Run"
"Comment4:"	"Leak amount : 9.688E-3Pa/Min, Vacuum degree before measurement:3.121E-5Pa"
"as/m2 g-1:"	0.0000
"Molecular weight of adsorbent:"	0.00
====================
 Time and dead volume
====================
"Date of measurement:"	20/09/18
"Time of measurement:"	49:11:50
"Slope of dead volume:"	-1.8761E-7
"Intercept of dead volume:"	2.5064E+1
"Average dead volume:"	2.5053E+1
====================
 Adsorption data
====================
"No."	"Pe/kPa"	"P0/kPa"	"Vd/ml"	"V/ml(STP) g-1"	
1	3.9168E-4	3.3100E-1	25.079	-8.6446E-5	
2	4.1522E-4	3.3100E-1	25.064	1.5676E-3	
3	2.9494E-4	3.3100E-1	25.047	4.1549E-3	
4	2.2228E-4	3.3100E-1	25.028	9.3331E-3	
5	2.4407E-4	3.3100E-1	24.994	2.0301E-2	
6	3.1215E-4	3.3100E-1	24.951	4.8697E-2	
7	3.5307E-4	3.3100E-1	24.881	1.0197E-1	
8	4.8306E-4	3.3100E-1	24.783	2.0922E-1	
9	4.8146E-3	3.3100E-1	24.328	5.2942E-1	
10	8.7421E-3	3.3100E-1	24.076	5.6468E-1	
11	1.8089E-2	3.3100E-1	23.937	6.0571E-1	
12	2.4775E-2	3.3100E-1	23.884	6.3017E-1	
13	3.6089E-2	3.3100E-1	23.835	6.6873E-1	
14	4.0958E-2	3.3100E-1	23.809	6.8325E-1	
15	5.0821E-2	3.3100E-1	23.790	7.0929E-1	
16	5.7897E-2	3.3100E-1	23.779	7.2775E-1	
17	6.6314E-2	3.3100E-1	23.760	7.4802E-1	
18	7.4287E-2	3.3100E-1	23.755	7.6042E-1	
19	8.2054E-2	3.3100E-1	23.750	7.6558E-1	
20	9.3696E-2	3.3100E-1	23.740	7.7928E-1	
21	1.0305E-1	3.3100E-1	23.737	7.8353E-1	
22	1.2593E-1	3.3100E-1	23.733	7.8500E-1	
23	1.3282E-1	3.3100E-1	23.642	7.9873E-1	
24	1.4263E-1	3.3100E-1	23.628	8.1653E-1	
25	1.6344E-1	3.3100E-1	23.611	8.5485E-1	
26	1.7495E-1	3.3100E-1	23.597	8.7818E-1	
27	1.9063E-1	3.3100E-1	23.578	9.2903E-1	
28	2.2123E-1	3.3100E-1	23.521	1.0186	
0	0	0	0	0	
====================
 Desorption data
====================
"No."	"Pe/kPa"	"P0/kPa"	"Vd/ml"	"V/ml(STP) g-1"	
1	2.1215E-1	3.3100E-1	23.509	1.0115	
2	2.0492E-1	3.3100E-1	23.498	1.0018	
3	1.8973E-1	3.3100E-1	23.460	9.5583E-1	
4	1.6221E-1	3.3100E-1	23.393	8.8663E-1	
0	0	0	0	0	
