====================
 System property BELSORP-max Ver1.3.5
====================
"Instrument S/N:"	00462
"Vs/ml:"	24.529
=======================
 Measurement condition
=======================
"Adsorptive:"	Kr
"Meas. Temp./K:"	77.35
"Molecular cross-sectional area:"	0
"Molecular weight of adsorbate:"	0.00
"Equilibrium time/sec:"	0
"Measurement mode:"	2
====================
 Sample information
====================
"Sample weight/g:"	0.54200
"Comment1:"	"U299"
"Comment2:"	"KLJ"
"Comment3:"	"1st Run"
"Comment4:"	"Leak amount : -1.000E+0Pa/Min, Vacuum degree before measurement:5.965E-5Pa"
"as/m2 g-1:"	0.0000
"Molecular weight of adsorbent:"	0.00
====================
 Time and dead volume
====================
"Date of measurement:"	20/08/10
"Time of measurement:"	42:56:16
"Slope of dead volume:"	3.4765E-7
"Intercept of dead volume:"	2.4370E+1
"Average dead volume:"	2.4391E+1
====================
 Adsorption data
====================
"No."	"Pe/kPa"	"P0/kPa"	"Vd/ml"	"V/ml(STP) g-1"	
1	3.9280E-4	3.3100E-1	24.546	-2.1503E-4	
2	4.0267E-4	3.3100E-1	24.546	1.3190E-3	
3	3.7018E-4	3.3100E-1	24.543	2.8887E-3	
4	2.6919E-4	3.3100E-1	24.540	6.3114E-3	
5	2.0329E-4	3.3100E-1	24.521	1.3028E-2	
6	2.5974E-4	3.3100E-1	24.498	2.9662E-2	
7	3.5091E-4	3.3100E-1	24.455	6.5585E-2	
8	5.2511E-4	3.3100E-1	24.398	1.3596E-1	
9	2.2943E-3	3.3100E-1	24.320	2.9038E-1	
10	4.5872E-3	3.3100E-1	24.254	3.6723E-1	
11	8.6449E-3	3.3100E-1	24.185	4.3759E-1	
12	1.6866E-2	3.3100E-1	24.117	5.1293E-1	
13	2.6125E-2	3.3100E-1	24.059	5.6647E-1	
14	3.4042E-2	3.3100E-1	23.974	6.0933E-1	
15	4.4195E-2	3.3100E-1	23.851	6.5407E-1	
16	5.6365E-2	3.3100E-1	23.702	6.9115E-1	
17	7.0981E-2	3.3100E-1	23.580	7.2859E-1	
18	8.1731E-2	3.3100E-1	23.490	7.5717E-1	
19	9.0007E-2	3.3100E-1	23.425	7.7801E-1	
20	1.0044E-1	3.3100E-1	23.344	7.9980E-1	
21	1.0501E-1	3.3100E-1	23.294	8.1263E-1	
22	1.2039E-1	3.3100E-1	23.220	8.3707E-1	
23	1.3703E-1	3.3100E-1	23.172	8.6474E-1	
24	1.4663E-1	3.3100E-1	23.150	8.8170E-1	
25	1.5692E-1	3.3100E-1	23.124	8.9894E-1	
26	1.6872E-1	3.3100E-1	23.100	9.1533E-1	
27	1.7592E-1	3.3100E-1	23.085	9.2345E-1	
28	1.8327E-1	3.3100E-1	23.071	9.3225E-1	
29	1.9110E-1	3.3100E-1	23.052	9.4151E-1	
30	1.9911E-1	3.3100E-1	23.038	9.5108E-1	
31	2.0730E-1	3.3100E-1	23.011	9.6102E-1	
32	2.1573E-1	3.3100E-1	22.996	9.7103E-1	
0	0	0	0	0	
====================
 Desorption data
====================
"No."	"Pe/kPa"	"P0/kPa"	"Vd/ml"	"V/ml(STP) g-1"	
1	9.0307E-1	3.3100E-1	22.083	7.2242E-1	
0	0	0	0	0	
