\relax 
\emailauthor{glaudone@plymouth.ac.uk}{Giuliano M. Laudone\corref {cor1}}
\citation{Horikawa2011}
\citation{Beebe1945,Deboer1967,Larher1974,Ban1987,Takei1998,BENYAHIA2013,Yahia2013}
\citation{Thommes2015}
\citation{Thommes2015}
\citation{Nightingale1962_25}
\citation{ElGenk2012}
\citation{Nightingale1962_25}
\citation{Allen2010,Murty2008}
\providecommand \oddpage@label [2]{}
\select@language{british}
\@writefile{toc}{\select@language{british}}
\@writefile{lof}{\select@language{british}}
\@writefile{lot}{\select@language{british}}
\Newlabel{cor1}{1}
\Newlabel{plym}{a}
\newlabel{sec:Introduction}{{1}{1}}
\@writefile{toc}{\contentsline {section}{\numberline {1}Introduction}{1}}
\citation{Kelly1982,KRISHNA20152,NEIGHBOUR2001}
\citation{Marsden2016,Neighbour2000}
\citation{Minshall1996}
\citation{Payne2015}
\citation{Zukal2006,Thommes2015}
\citation{Laudone2018}
\citation{Rouquerol1994}
\citation{Trevethan2016,Marsden2016,Berre2006,Gao2016,Hutcheon1966}
\citation{HALL2006_17,FREEMAN2016}
\citation{PatentGilso}
\citation{Tanso1997}
\citation{Tanso1997}
\citation{PatentPCEA}
\@writefile{toc}{\contentsline {section}{\numberline {2}Experimental}{3}}
\@writefile{toc}{\contentsline {subsection}{\numberline {2.1}Materials}{3}}
\@writefile{lot}{\contentsline {table}{\numberline {1}{\ignorespaces Manufacturer's characterisation of the graphite types.\relax }}{4}}
\providecommand*\caption@xref[2]{\@setref\relax\@undefined{#1}}
\newlabel{table:3-ManufacProps}{{1}{4}}
\newlabel{Sampleprep}{{2.2}{4}}
\@writefile{toc}{\contentsline {subsection}{\numberline {2.2}Sample preparation }{4}}
\citation{Van1965}
\newlabel{GasAdsorption}{{2.3}{5}}
\@writefile{toc}{\contentsline {subsection}{\numberline {2.3}Gas adsorption }{5}}
\@writefile{toc}{\contentsline {paragraph}{Instrument}{5}}
\@writefile{toc}{\contentsline {paragraph}{Adsorbates}{5}}
\citation{Beebe1945}
\citation{Thommes2015}
\citation{Brunauer1938_34}
\@writefile{toc}{\contentsline {paragraph}{Interpretation}{6}}
\@writefile{toc}{\contentsline {subsection}{\numberline {2.4}Sample Preparation}{7}}
\@writefile{toc}{\contentsline {section}{\numberline {3}Results}{7}}
\newlabel{fig:IG110irradiated}{{1a}{7}}
\newlabel{sub@fig:IG110irradiated}{{(a)}{a}}
\newlabel{fig:IG430irradiated}{{1b}{7}}
\newlabel{sub@fig:IG430irradiated}{{(b)}{b}}
\newlabel{fig:TORT}{{1}{7}}
\@writefile{lof}{\contentsline {subfigure}{\numberline{(a)}{\ignorespaces {}}}{7}}
\@writefile{lof}{\contentsline {subfigure}{\numberline{(b)}{\ignorespaces {}}}{7}}
\@writefile{toc}{\contentsline {section}{\numberline {4}Discussion}{9}}
\@writefile{toc}{\contentsline {section}{\numberline {5}Conclusions}{9}}
\bibstyle{elsarticle-num-names}
\bibdata{Jones_2021_GA_Irradiated_graphite}
\bibcite{Horikawa2011}{{1}{2011}{{Horikawa and Nicholson}}{{}}}
\bibcite{Beebe1945}{{2}{1945}{{Beebe et~al.}}{{Beebe, Beckwith, and Honig}}}
\bibcite{Deboer1967}{{3}{1967}{{de~Boer et~al.}}{{de~Boer, Broekhoff, Linsen, and Meijer}}}
\bibcite{Larher1974}{{4}{1974}{{Larher}}{{}}}
\bibcite{Ban1987}{{5}{1987}{{Ba{\=n}ares-Mu{\=n}oz et~al.}}{{Ba{\=n}ares-Mu{\=n}oz, Gonz{\'a}lez, and Llorenta}}}
\bibcite{Takei1998}{{6}{1998}{{Takei and Chikazawa}}{{}}}
\bibcite{BENYAHIA2013}{{7}{2013{}}{{Yahia et~al.}}{{Yahia, Aouaini, Hachicha, Knani, Khalfaoui, and Lamine}}}
\bibcite{Yahia2013}{{8}{2013{}}{{Yahia et~al.}}{{Yahia, Aouaini, Hachicha, Knani, Khalfaoui, and Lamine}}}
\bibcite{Thommes2015}{{9}{2015}{{Thommes et~al.}}{{Thommes, Kaneko, V.~Neimark, Olivier, Rodriguez-Reinoso, Rouquerol, and Sing}}}
\bibcite{Nightingale1962_25}{{10}{1962}{{Nightingale}}{{}}}
\bibcite{ElGenk2012}{{11}{2012}{{El-Genk and Tournier}}{{}}}
\bibcite{Allen2010}{{12}{2010}{{Allen et~al.}}{{Allen, Busby, Meyer, and Petti}}}
\bibcite{Murty2008}{{13}{2008}{{Murty and Charit}}{{}}}
\bibcite{Kelly1982}{{14}{1982}{{Kelly}}{{}}}
\bibcite{KRISHNA20152}{{15}{2017}{{Krishna et~al.}}{{Krishna, Wade, Jones, Lasithiotakis, Mummery, and Marsden}}}
\bibcite{NEIGHBOUR2001}{{16}{2001}{{Neighbour and Hacker}}{{}}}
\bibcite{Marsden2016}{{17}{2016}{{Marsden et~al.}}{{Marsden, Haverty, Bodel, Hall, Jones, Mummery, and Treifi}}}
\bibcite{Neighbour2000}{{18}{2000}{{Neighbour}}{{}}}
\bibcite{Minshall1996}{{19}{1996}{{Minshall et~al.}}{{Minshall, Sadler, and Wickham}}}
\bibcite{Payne2015}{{20}{2015}{{Payne et~al.}}{{Payne, Heard, and Scott}}}
\bibcite{Zukal2006}{{21}{2006}{{Zukal}}{{}}}
\bibcite{Laudone2018}{{22}{2018}{{Laudone and Jones}}{{}}}
\bibcite{Rouquerol1994}{{23}{1994}{{Rouquerol et~al.}}{{Rouquerol, Avnir, Fairbridge, Everett, Haynes, Pernicone, Ramsay, Sing, and Unger}}}
\bibcite{Trevethan2016}{{24}{2016}{{Trevethan and Heggie}}{{}}}
\bibcite{Berre2006}{{25}{2006}{{Berre et~al.}}{{Berre, Fok, Marsden, Babout, Hodgkins, Marrow, and Mummery}}}
\bibcite{Gao2016}{{26}{2016}{{Gao et~al.}}{{Gao, Yao, and Ma}}}
\bibcite{Hutcheon1966}{{27}{1966}{{Hutcheon and Thorne}}{{}}}
\bibcite{HALL2006_17}{{28}{2006}{{Hall et~al.}}{{Hall, Marsden, and Fok}}}
\bibcite{FREEMAN2016}{{29}{2016}{{Freeman et~al.}}{{Freeman, Jones, Ward, Hage, Tzelepi, Ramasse, Scott, and Brydson}}}
\bibcite{PatentGilso}{{30}{1990}{{Mercuri and Criscione}}{{}}}
\bibcite{Tanso1997}{{31}{1997}{{Tanso, Toyo}}{{}}}
\bibcite{PatentPCEA}{{32}{2011}{{GrafTech International}}{{}}}
\bibcite{Van1965}{{33}{1965}{{Van~Wijngaarden}}{{}}}
\bibcite{Brunauer1938_34}{{34}{1938}{{Brunauer et~al.}}{{Brunauer, Emmett, and Teller}}}
