====================
 System property BELSORP-max Ver1.3.5
====================
"Instrument S/N:"	00462
"Vs/ml:"	24.529
=======================
 Measurement condition
=======================
"Adsorptive:"	Kr
"Meas. Temp./K:"	77.35
"Molecular cross-sectional area:"	0
"Molecular weight of adsorbate:"	0.00
"Equilibrium time/sec:"	0
"Measurement mode:"	2
====================
 Sample information
====================
"Sample weight/g:"	0.53420
"Comment1:"	"0U54"
"Comment2:"	"KLJ"
"Comment3:"	"2 Kr run"
"Comment4:"	"Leak amount : 1.275E-2Pa/Min, Vacuum degree before measurement:3.514E-5Pa"
"as/m2 g-1:"	0.0000
"Molecular weight of adsorbent:"	0.00
====================
 Time and dead volume
====================
"Date of measurement:"	20/10/01
"Time of measurement:"	36:06:33
"Slope of dead volume:"	-1.2323E-6
"Intercept of dead volume:"	2.6037E+1
"Average dead volume:"	2.5963E+1
====================
 Adsorption data
====================
"No."	"Pe/kPa"	"P0/kPa"	"Vd/ml"	"V/ml(STP) g-1"	
1	8.8851E-4	3.3100E-1	25.599	1.0630E-4	
2	9.1693E-4	3.3100E-1	25.547	1.5798E-3	
3	5.4783E-4	3.3100E-1	25.485	4.0414E-3	
4	4.8091E-4	3.3100E-1	25.363	8.5219E-3	
5	1.0768E-3	3.3100E-1	24.799	1.7458E-2	
6	2.1575E-3	3.3100E-1	24.242	2.4098E-2	
7	3.1802E-3	3.3100E-1	23.840	2.6600E-2	
8	7.7159E-3	3.3100E-1	23.679	2.8932E-2	
9	1.9294E-2	3.3100E-1	23.580	3.1146E-2	
10	2.6769E-2	3.3100E-1	23.525	3.2420E-2	
11	3.6182E-2	3.3100E-1	23.501	3.3428E-2	
12	4.5517E-2	3.3100E-1	23.481	3.4426E-2	
13	5.1772E-2	3.3100E-1	23.464	3.5094E-2	
14	6.1791E-2	3.3100E-1	23.448	3.6091E-2	
15	6.8714E-2	3.3100E-1	23.434	3.6974E-2	
16	7.8184E-2	3.3100E-1	23.423	3.7985E-2	
17	8.6445E-2	3.3100E-1	23.412	3.9128E-2	
18	9.2888E-2	3.3100E-1	23.406	4.1538E-2	
19	9.9172E-2	3.3100E-1	23.368	5.3861E-2	
20	1.0824E-1	3.3100E-1	23.330	5.7324E-2	
21	1.1996E-1	3.3100E-1	23.303	5.9955E-2	
22	1.3580E-1	3.3100E-1	23.279	6.3070E-2	
23	1.5320E-1	3.3100E-1	23.260	6.6589E-2	
24	1.7040E-1	3.3100E-1	23.245	7.1036E-2	
25	1.8496E-1	3.3100E-1	23.227	7.6490E-2	
26	1.9409E-1	3.3100E-1	23.216	8.6429E-2	
27	2.0367E-1	3.3100E-1	23.199	9.5953E-2	
28	2.1352E-1	3.3100E-1	23.187	1.0510E-1	
29	2.2577E-1	3.3100E-1	23.182	1.1853E-1	
0	0	0	0	0	
====================
 Desorption data
====================
"No."	"Pe/kPa"	"P0/kPa"	"Vd/ml"	"V/ml(STP) g-1"	
1	2.1262E-1	3.3100E-1	23.175	1.0906E-1	
2	1.9916E-1	3.3100E-1	23.166	1.0022E-1	
3	1.7146E-1	3.3100E-1	23.138	8.0391E-2	
4	1.5340E-1	3.3100E-1	23.112	7.5875E-2	
0	0	0	0	0	
