====================
 System property BELSORP-max Ver1.3.5
====================
"Instrument S/N:"	00462
"Vs/ml:"	24.529
=======================
 Measurement condition
=======================
"Adsorptive:"	Kr
"Meas. Temp./K:"	77.35
"Molecular cross-sectional area:"	0
"Molecular weight of adsorbate:"	0.00
"Equilibrium time/sec:"	0
"Measurement mode:"	2
====================
 Sample information
====================
"Sample weight/g:"	0.51510
"Comment1:"	"0T44"
"Comment2:"	"KLJ"
"Comment3:"	"2 Kr run"
"Comment4:"	"Leak amount : 1.359E-2Pa/Min, Vacuum degree before measurement:2.848E-5Pa"
"as/m2 g-1:"	0.0000
"Molecular weight of adsorbent:"	0.00
====================
 Time and dead volume
====================
"Date of measurement:"	20/09/29
"Time of measurement:"	21:25:08
"Slope of dead volume:"	1.0855E-6
"Intercept of dead volume:"	2.3584E+1
"Average dead volume:"	2.3651E+1
====================
 Adsorption data
====================
"No."	"Pe/kPa"	"P0/kPa"	"Vd/ml"	"V/ml(STP) g-1"	
1	2.1879E-4	3.3100E-1	24.105	1.5937E-4	
2	3.0497E-4	3.3100E-1	24.136	1.7629E-3	
3	3.3333E-4	3.3100E-1	24.168	4.1592E-3	
4	3.6593E-4	3.3100E-1	24.185	9.0348E-3	
5	3.9836E-4	3.3100E-1	24.195	1.6735E-2	
6	4.7183E-4	3.3100E-1	24.186	3.7529E-2	
7	1.1506E-3	3.3100E-1	24.102	8.0011E-2	
8	2.0830E-3	3.3100E-1	24.034	9.1779E-2	
9	2.8152E-3	3.3100E-1	23.969	9.5509E-2	
10	7.9038E-3	3.3100E-1	23.930	1.0310E-1	
11	1.6216E-2	3.3100E-1	23.880	1.0985E-1	
12	2.4151E-2	3.3100E-1	23.856	1.1297E-1	
13	3.4590E-2	3.3100E-1	23.837	1.1613E-1	
14	4.4503E-2	3.3100E-1	23.820	1.1879E-1	
15	5.3315E-2	3.3100E-1	23.810	1.2106E-1	
16	6.1896E-2	3.3100E-1	23.800	1.2337E-1	
17	7.0728E-2	3.3100E-1	23.789	1.2586E-1	
18	7.9335E-2	3.3100E-1	23.777	1.2847E-1	
19	9.2915E-2	3.3100E-1	23.764	1.3322E-1	
20	1.0213E-1	3.3100E-1	23.754	1.3787E-1	
21	1.0550E-1	3.3100E-1	23.746	1.4563E-1	
22	1.2667E-1	3.3100E-1	23.692	2.0567E-1	
23	1.4056E-1	3.3100E-1	23.664	2.1284E-1	
24	1.5419E-1	3.3100E-1	23.655	2.1776E-1	
25	1.6815E-1	3.3100E-1	23.639	2.2507E-1	
26	1.8361E-1	3.3100E-1	23.619	2.3390E-1	
27	1.9833E-1	3.3100E-1	23.607	2.4392E-1	
28	2.1301E-1	3.3100E-1	23.590	2.5506E-1	
29	2.2822E-1	3.3100E-1	23.573	2.6895E-1	
0	0	0	0	0	
====================
 Desorption data
====================
"No."	"Pe/kPa"	"P0/kPa"	"Vd/ml"	"V/ml(STP) g-1"	
1	2.2108E-1	3.3100E-1	23.545	2.6063E-1	
2	1.2017E-1	3.3100E-1	22.910	1.0448E-1	
0	0	0	0	0	
