====================
 System property BELSORP-max Ver1.3.5
====================
"Instrument S/N:"	00462
"Vs/ml:"	24.529
=======================
 Measurement condition
=======================
"Adsorptive:"	Kr
"Meas. Temp./K:"	77.35
"Molecular cross-sectional area:"	0
"Molecular weight of adsorbate:"	0.00
"Equilibrium time/sec:"	0
"Measurement mode:"	2
====================
 Sample information
====================
"Sample weight/g:"	0.51600
"Comment1:"	"T037"
"Comment2:"	"KLJ"
"Comment3:"	"2 Kr run"
"Comment4:"	"Leak amount : 9.744E-3Pa/Min, Vacuum degree before measurement:2.911E-5Pa"
"as/m2 g-1:"	0.0000
"Molecular weight of adsorbent:"	0.00
====================
 Time and dead volume
====================
"Date of measurement:"	20/11/11
"Time of measurement:"	13:44:42
"Slope of dead volume:"	1.6543E-6
"Intercept of dead volume:"	2.5305E+1
"Average dead volume:"	2.5405E+1
====================
 Adsorption data
====================
"No."	"Pe/kPa"	"P0/kPa"	"Vd/ml"	"V/ml(STP) g-1"	
1	1.7663E-4	3.3100E-1	25.317	8.6709E-5	
2	2.2537E-4	3.3100E-1	25.281	1.3563E-3	
3	2.3789E-4	3.3100E-1	25.245	3.9854E-3	
4	2.4733E-4	3.3100E-1	25.198	9.2837E-3	
5	3.5687E-4	3.3100E-1	25.093	2.0557E-2	
6	3.7257E-4	3.3100E-1	24.978	2.6940E-2	
7	1.2565E-3	3.3100E-1	24.805	5.7820E-2	
8	1.6674E-3	3.3100E-1	24.773	6.0237E-2	
9	2.5715E-3	3.3100E-1	24.742	6.1934E-2	
10	7.5793E-3	3.3100E-1	24.705	6.6328E-2	
11	1.8839E-2	3.3100E-1	24.672	7.0607E-2	
12	2.7188E-2	3.3100E-1	24.654	7.2572E-2	
13	3.6339E-2	3.3100E-1	24.641	7.4399E-2	
14	4.6294E-2	3.3100E-1	24.627	7.6178E-2	
15	5.5650E-2	3.3100E-1	24.617	7.7897E-2	
16	7.0121E-2	3.3100E-1	24.608	8.0713E-2	
17	7.9988E-2	3.3100E-1	24.597	8.3013E-2	
18	9.2281E-2	3.3100E-1	24.589	8.8372E-2	
19	9.5989E-2	3.3100E-1	24.569	1.0861E-1	
20	1.0637E-1	3.3100E-1	24.551	1.2792E-1	
21	1.1940E-1	3.3100E-1	24.540	1.3336E-1	
22	1.3511E-1	3.3100E-1	24.528	1.3954E-1	
23	1.4937E-1	3.3100E-1	24.519	1.4587E-1	
24	1.5959E-1	3.3100E-1	24.508	1.5111E-1	
25	1.7236E-1	3.3100E-1	24.496	1.5931E-1	
26	1.8170E-1	3.3100E-1	24.486	1.6724E-1	
27	1.9204E-1	3.3100E-1	24.469	1.9865E-1	
28	2.0424E-1	3.3100E-1	24.455	2.2980E-1	
29	2.0922E-1	3.3100E-1	24.445	2.4147E-1	
30	2.1814E-1	3.3100E-1	24.426	2.7869E-1	
0	0	0	0	0	
====================
 Desorption data
====================
"No."	"Pe/kPa"	"P0/kPa"	"Vd/ml"	"V/ml(STP) g-1"	
1	2.1410E-1	3.3100E-1	24.415	2.6877E-1	
2	2.0141E-1	3.3100E-1	24.400	2.3783E-1	
3	1.9584E-1	3.3100E-1	24.390	2.2671E-1	
4	1.8825E-1	3.3100E-1	24.373	1.9758E-1	
5	1.7247E-1	3.3100E-1	24.355	1.7425E-1	
6	1.6088E-1	3.3100E-1	24.344	1.6619E-1	
0	0	0	0	0	
