====================
 System property BELSORP-max Ver1.3.5
====================
"Instrument S/N:"	00462
"Vs/ml:"	24.529
=======================
 Measurement condition
=======================
"Adsorptive:"	Kr
"Meas. Temp./K:"	77.35
"Molecular cross-sectional area:"	0
"Molecular weight of adsorbate:"	0.00
"Equilibrium time/sec:"	0
"Measurement mode:"	2
====================
 Sample information
====================
"Sample weight/g:"	0.51570
"Comment1:"	"0T42"
"Comment2:"	"KLJ"
"Comment3:"	"1 Kr run"
"Comment4:"	"Leak amount : 8.948E-3Pa/Min, Vacuum degree before measurement:3.403E-5Pa"
"as/m2 g-1:"	0.0000
"Molecular weight of adsorbent:"	0.00
====================
 Time and dead volume
====================
"Date of measurement:"	20/11/17
"Time of measurement:"	24:14:33
"Slope of dead volume:"	-7.9454E-7
"Intercept of dead volume:"	2.5458E+1
"Average dead volume:"	2.5410E+1
====================
 Adsorption data
====================
"No."	"Pe/kPa"	"P0/kPa"	"Vd/ml"	"V/ml(STP) g-1"	
1	2.0793E-4	3.3100E-1	25.351	9.6001E-4	
2	3.1394E-4	3.3100E-1	25.322	2.9623E-3	
3	2.6941E-4	3.3100E-1	25.278	6.6923E-3	
4	2.7960E-4	3.3100E-1	25.218	1.3491E-2	
5	3.9402E-4	3.3100E-1	25.074	3.0094E-2	
6	8.1078E-4	3.3100E-1	24.853	6.6072E-2	
7	1.7891E-3	3.3100E-1	24.720	8.4417E-2	
8	3.0430E-3	3.3100E-1	24.636	9.0273E-2	
9	7.9375E-3	3.3100E-1	24.578	9.8648E-2	
10	1.6848E-2	3.3100E-1	24.543	1.0486E-1	
11	2.4212E-2	3.3100E-1	24.522	1.0881E-1	
12	3.3662E-2	3.3100E-1	24.503	1.1244E-1	
13	4.1110E-2	3.3100E-1	24.489	1.1493E-1	
14	4.8830E-2	3.3100E-1	24.477	1.1731E-1	
15	5.7378E-2	3.3100E-1	24.466	1.1998E-1	
16	6.5788E-2	3.3100E-1	24.454	1.2275E-1	
17	7.4544E-2	3.3100E-1	24.442	1.2579E-1	
18	8.2855E-2	3.3100E-1	24.432	1.2903E-1	
19	9.0390E-2	3.3100E-1	24.422	1.3290E-1	
20	9.9316E-2	3.3100E-1	24.383	1.8332E-1	
21	1.1123E-1	3.3100E-1	24.322	1.9598E-1	
22	1.2105E-1	3.3100E-1	24.299	2.0219E-1	
23	1.3036E-1	3.3100E-1	24.278	2.0822E-1	
24	1.3933E-1	3.3100E-1	24.257	2.1467E-1	
25	1.4770E-1	3.3100E-1	24.238	2.2146E-1	
26	1.5562E-1	3.3100E-1	24.223	2.2857E-1	
27	1.6273E-1	3.3100E-1	24.208	2.3616E-1	
28	1.7024E-1	3.3100E-1	24.192	2.4536E-1	
29	1.7689E-1	3.3100E-1	24.180	2.5506E-1	
30	1.8342E-1	3.3100E-1	24.166	2.6610E-1	
31	1.9592E-1	3.3100E-1	24.132	3.2564E-1	
32	1.9909E-1	3.3100E-1	24.110	3.3801E-1	
33	2.0817E-1	3.3100E-1	24.092	3.7268E-1	
34	2.1543E-1	3.3100E-1	24.073	4.0959E-1	
0	0	0	0	0	
====================
 Desorption data
====================
"No."	"Pe/kPa"	"P0/kPa"	"Vd/ml"	"V/ml(STP) g-1"	
1	2.1095E-1	3.3100E-1	24.060	3.9753E-1	
2	2.0678E-1	3.3100E-1	24.048	3.8554E-1	
3	1.9686E-1	3.3100E-1	24.032	3.5611E-1	
4	1.8919E-1	3.3100E-1	24.016	3.2819E-1	
5	1.7531E-1	3.3100E-1	23.991	2.8137E-1	
6	1.6912E-1	3.3100E-1	23.966	2.7288E-1	
7	1.6167E-1	3.3100E-1	23.944	2.6438E-1	
0	0	0	0	0	
