====================
 System property BELSORP-max Ver1.3.5
====================
"Instrument S/N:"	00462
"Vs/ml:"	24.529
=======================
 Measurement condition
=======================
"Adsorptive:"	Kr
"Meas. Temp./K:"	77.35
"Molecular cross-sectional area:"	0
"Molecular weight of adsorbate:"	0.00
"Equilibrium time/sec:"	0
"Measurement mode:"	2
====================
 Sample information
====================
"Sample weight/g:"	0.46210
"Comment1:"	"T052"
"Comment2:"	"BV"
"Comment3:"	"2nd Run"
"Comment4:"	"Leak amount : 7.738E-3Pa/Min, Vacuum degree before measurement:2.844E-5Pa"
"as/m2 g-1:"	0.0000
"Molecular weight of adsorbent:"	0.00
====================
 Time and dead volume
====================
"Date of measurement:"	19/08/22
"Time of measurement:"	10:17:50
"Slope of dead volume:"	-1.7700E-6
"Intercept of dead volume:"	2.7228E+1
"Average dead volume:"	2.7122E+1
====================
 Adsorption data
====================
"No."	"Pe/kPa"	"P0/kPa"	"Vd/ml"	"V/ml(STP) g-1"	
1	1.4647E-4	3.3100E-1	26.681	-2.3614E-5	
2	2.2315E-4	3.3100E-1	26.620	1.5624E-3	
3	3.4254E-4	3.3100E-1	26.507	4.4799E-3	
4	4.0583E-4	3.3100E-1	26.420	5.7966E-3	
5	7.2965E-4	3.3100E-1	26.198	1.1879E-2	
6	8.4694E-4	3.3100E-1	26.082	1.3103E-2	
7	1.7234E-3	3.3100E-1	25.919	1.7482E-2	
8	2.7158E-3	3.3100E-1	25.785	1.9995E-2	
9	7.8488E-3	3.3100E-1	25.659	2.7797E-2	
10	1.5693E-2	3.3100E-1	25.586	3.7933E-2	
11	2.3796E-2	3.3100E-1	25.530	5.0002E-2	
12	3.4924E-2	3.3100E-1	25.482	6.0985E-2	
13	4.2620E-2	3.3100E-1	25.452	6.5702E-2	
14	5.1549E-2	3.3100E-1	25.424	6.9898E-2	
15	6.1117E-2	3.3100E-1	25.401	7.3729E-2	
16	7.2633E-2	3.3100E-1	25.380	7.7980E-2	
17	8.8595E-2	3.3100E-1	25.358	8.3472E-2	
18	1.0451E-1	3.3100E-1	25.339	8.9148E-2	
19	1.2158E-1	3.3100E-1	25.317	9.6064E-2	
20	1.3822E-1	3.3100E-1	25.296	1.0387E-1	
21	1.5363E-1	3.3100E-1	25.279	1.1207E-1	
22	1.6881E-1	3.3100E-1	25.260	1.2182E-1	
23	1.8308E-1	3.3100E-1	25.240	1.3387E-1	
24	1.9562E-1	3.3100E-1	25.220	1.4879E-1	
25	2.0461E-1	3.3100E-1	25.201	1.6361E-1	
26	2.1159E-1	3.3100E-1	25.182	1.7960E-1	
27	2.1739E-1	3.3100E-1	25.163	1.9793E-1	
0	0	0	0	0	
====================
 Desorption data
====================
"No."	"Pe/kPa"	"P0/kPa"	"Vd/ml"	"V/ml(STP) g-1"	
1	2.0573E-1	3.3100E-1	25.152	1.8683E-1	
2	1.9415E-1	3.3100E-1	25.137	1.7509E-1	
3	1.8262E-1	3.3100E-1	25.126	1.6441E-1	
4	1.6980E-1	3.3100E-1	25.115	1.5383E-1	
5	1.5843E-1	3.3100E-1	25.104	1.4555E-1	
6	1.4828E-1	3.3100E-1	25.094	1.3858E-1	
7	1.3933E-1	3.3100E-1	25.086	1.3263E-1	
8	1.3096E-1	3.3100E-1	25.075	1.2731E-1	
9	1.2265E-1	3.3100E-1	25.066	1.2212E-1	
10	1.1444E-1	3.3100E-1	25.057	1.1730E-1	
11	1.0514E-1	3.3100E-1	25.048	1.1208E-1	
12	9.7194E-2	3.3100E-1	25.039	1.0788E-1	
13	8.8754E-2	3.3100E-1	25.029	1.0348E-1	
14	8.0343E-2	3.3100E-1	25.014	9.9137E-2	
15	7.3323E-2	3.3100E-1	25.004	9.5623E-2	
16	6.5179E-2	3.3100E-1	24.995	9.1381E-2	
17	5.4577E-2	3.3100E-1	24.986	8.5618E-2	
18	4.6145E-2	3.3100E-1	24.977	8.0621E-2	
0	0	0	0	0	
