====================
 System property BELSORP-max Ver1.3.5
====================
"Instrument S/N:"	00462
"Vs/ml:"	24.529
=======================
 Measurement condition
=======================
"Adsorptive:"	Kr
"Meas. Temp./K:"	77.35
"Molecular cross-sectional area:"	0
"Molecular weight of adsorbate:"	0.00
"Equilibrium time/sec:"	0
"Measurement mode:"	2
====================
 Sample information
====================
"Sample weight/g:"	0.53740
"Comment1:"	""
"Comment2:"	"KLJ"
"Comment3:"	""
"Comment4:"	"Leak amount : 2.385E-2Pa/Min, Vacuum degree before measurement:3.322E-5Pa"
"as/m2 g-1:"	0.0000
"Molecular weight of adsorbent:"	0.00
====================
 Time and dead volume
====================
"Date of measurement:"	19/05/14
"Time of measurement:"	9:00:39
"Slope of dead volume:"	-3.2333E-6
"Intercept of dead volume:"	4.4705E+1
"Average dead volume:"	4.4537E+1
====================
 Adsorption data
====================
"No."	"Pe/kPa"	"P0/kPa"	"Vd/ml"	"V/ml(STP) g-1"	
1	2.5324E-4	3.3100E-1	43.730	4.1288E-4	
2	3.8131E-4	3.3100E-1	43.454	1.4595E-3	
3	4.2533E-4	3.3100E-1	43.074	3.4914E-3	
4	5.3790E-4	3.3100E-1	42.412	7.5309E-3	
5	1.0265E-3	3.3100E-1	41.958	1.1518E-2	
6	2.0142E-3	3.3100E-1	41.841	1.3324E-2	
7	2.8048E-3	3.3100E-1	41.769	1.3966E-2	
8	7.6905E-3	3.3100E-1	41.701	1.6294E-2	
9	1.8016E-2	3.3100E-1	41.645	2.0668E-2	
10	2.4650E-2	3.3100E-1	41.605	2.4223E-2	
11	3.4252E-2	3.3100E-1	41.575	2.7595E-2	
12	4.4237E-2	3.3100E-1	41.550	3.0196E-2	
13	5.5462E-2	3.3100E-1	41.529	3.2295E-2	
14	7.1749E-2	3.3100E-1	41.509	3.4618E-2	
15	8.9831E-2	3.3100E-1	41.487	3.6935E-2	
16	1.0082E-1	3.3100E-1	41.442	4.4568E-2	
17	1.1779E-1	3.3100E-1	41.421	4.6802E-2	
18	1.3460E-1	3.3100E-1	41.404	4.9013E-2	
19	1.5823E-1	3.3100E-1	41.381	5.2831E-2	
20	1.8179E-1	3.3100E-1	41.359	5.8555E-2	
21	2.0063E-1	3.3100E-1	41.322	7.0209E-2	
22	2.1520E-1	3.3100E-1	41.289	8.3506E-2	
0	0	0	0	0	
====================
 Desorption data
====================
"No."	"Pe/kPa"	"P0/kPa"	"Vd/ml"	"V/ml(STP) g-1"	
1	1.9908E-1	3.3100E-1	41.261	7.5096E-2	
2	1.8477E-1	3.3100E-1	41.224	6.3712E-2	
3	1.6876E-1	3.3100E-1	41.204	5.8843E-2	
4	1.5193E-1	3.3100E-1	41.187	5.4795E-2	
5	1.3446E-1	3.3100E-1	41.171	5.1425E-2	
6	1.1808E-1	3.3100E-1	41.157	4.8811E-2	
7	1.0234E-1	3.3100E-1	41.139	4.6378E-2	
8	9.2560E-2	3.3100E-1	41.100	3.9735E-2	
9	8.0609E-2	3.3100E-1	41.085	3.6828E-2	
10	6.9514E-2	3.3100E-1	41.070	3.5213E-2	
11	6.1229E-2	3.3100E-1	41.053	3.3927E-2	
0	0	0	0	0	
