====================
 System property BELSORP-max Ver1.3.5
====================
"Instrument S/N:"	00462
"Vs/ml:"	24.529
=======================
 Measurement condition
=======================
"Adsorptive:"	Kr
"Meas. Temp./K:"	77.35
"Molecular cross-sectional area:"	0
"Molecular weight of adsorbate:"	0.00
"Equilibrium time/sec:"	0
"Measurement mode:"	2
====================
 Sample information
====================
"Sample weight/g:"	0.53600
"Comment1:"	"0U58"
"Comment2:"	"KLJ"
"Comment3:"	"2 Kr run"
"Comment4:"	"Leak amount : -1.000E+0Pa/Min, Vacuum degree before measurement:4.275E-5Pa"
"as/m2 g-1:"	0.0000
"Molecular weight of adsorbent:"	0.00
====================
 Time and dead volume
====================
"Date of measurement:"	20/10/05
"Time of measurement:"	13:50:14
"Slope of dead volume:"	-1.6032E-6
"Intercept of dead volume:"	2.7037E+1
"Average dead volume:"	2.6941E+1
====================
 Adsorption data
====================
"No."	"Pe/kPa"	"P0/kPa"	"Vd/ml"	"V/ml(STP) g-1"	
1	3.1302E-4	3.3100E-1	26.508	1.9682E-3	
2	3.1384E-4	3.3100E-1	26.426	4.4731E-3	
3	3.2001E-4	3.3100E-1	26.302	9.3316E-3	
4	3.8243E-4	3.3100E-1	26.214	1.0612E-2	
5	1.1353E-3	3.3100E-1	25.477	1.8818E-2	
6	1.8320E-3	3.3100E-1	25.173	2.0536E-2	
7	2.7341E-3	3.3100E-1	25.038	2.1640E-2	
8	8.1329E-3	3.3100E-1	24.951	2.3998E-2	
9	1.6791E-2	3.3100E-1	24.915	2.5709E-2	
10	2.7101E-2	3.3100E-1	24.892	2.7169E-2	
11	3.7652E-2	3.3100E-1	24.877	2.8413E-2	
12	4.7038E-2	3.3100E-1	24.862	2.9523E-2	
13	6.3358E-2	3.3100E-1	24.849	3.1325E-2	
14	8.1748E-2	3.3100E-1	24.836	3.3617E-2	
15	9.3362E-2	3.3100E-1	24.828	3.8462E-2	
16	9.7904E-2	3.3100E-1	24.808	4.5271E-2	
17	1.1152E-1	3.3100E-1	24.784	4.9915E-2	
18	1.3083E-1	3.3100E-1	24.769	5.3897E-2	
19	1.4963E-1	3.3100E-1	24.756	5.8149E-2	
20	1.6576E-1	3.3100E-1	24.745	6.2767E-2	
21	1.8478E-1	3.3100E-1	24.733	7.1556E-2	
22	1.9497E-1	3.3100E-1	24.718	8.4137E-2	
23	2.0620E-1	3.3100E-1	24.705	9.5645E-2	
24	2.1513E-1	3.3100E-1	24.694	1.1238E-1	
0	0	0	0	0	
====================
 Desorption data
====================
"No."	"Pe/kPa"	"P0/kPa"	"Vd/ml"	"V/ml(STP) g-1"	
1	2.0448E-1	3.3100E-1	24.685	1.0256E-1	
2	1.9243E-1	3.3100E-1	24.676	9.2580E-2	
3	1.8435E-1	3.3100E-1	24.665	8.3793E-2	
4	1.7383E-1	3.3100E-1	24.650	7.6777E-2	
5	1.5586E-1	3.3100E-1	24.633	7.0909E-2	
0	0	0	0	0	
