====================
 System property BELSORP-max Ver1.3.5
====================
"Instrument S/N:"	00462
"Vs/ml:"	24.529
=======================
 Measurement condition
=======================
"Adsorptive:"	Kr
"Meas. Temp./K:"	77.35
"Molecular cross-sectional area:"	0
"Molecular weight of adsorbate:"	0.00
"Equilibrium time/sec:"	0
"Measurement mode:"	2
====================
 Sample information
====================
"Sample weight/g:"	0.53940
"Comment1:"	"2U59"
"Comment2:"	"KLJ"
"Comment3:"	"1st Run"
"Comment4:"	"Leak amount : 7.738E-3Pa/Min, Vacuum degree before measurement:3.214E-5Pa"
"as/m2 g-1:"	0.0000
"Molecular weight of adsorbent:"	0.00
====================
 Time and dead volume
====================
"Date of measurement:"	20/07/24
"Time of measurement:"	8:52:28
"Slope of dead volume:"	4.3933E-7
"Intercept of dead volume:"	2.4784E+1
"Average dead volume:"	2.4810E+1
====================
 Adsorption data
====================
"No."	"Pe/kPa"	"P0/kPa"	"Vd/ml"	"V/ml(STP) g-1"	
1	2.6159E-4	3.3100E-1	24.939	6.5390E-4	
2	3.9107E-4	3.3100E-1	24.935	2.3067E-3	
3	4.4654E-4	3.3100E-1	24.925	4.9720E-3	
4	7.5893E-4	3.3100E-1	24.875	1.0705E-2	
5	8.4837E-4	3.3100E-1	24.844	1.1540E-2	
6	2.0162E-3	3.3100E-1	24.772	1.4903E-2	
7	2.5042E-3	3.3100E-1	24.755	1.5286E-2	
8	8.0720E-3	3.3100E-1	24.731	1.7156E-2	
9	1.8113E-2	3.3100E-1	24.718	1.8429E-2	
10	2.9067E-2	3.3100E-1	24.707	1.9617E-2	
11	3.8982E-2	3.3100E-1	24.701	2.0333E-2	
12	4.8194E-2	3.3100E-1	24.695	2.0943E-2	
13	6.5634E-2	3.3100E-1	24.688	2.1972E-2	
14	8.2889E-2	3.3100E-1	24.682	2.3127E-2	
15	9.3646E-2	3.3100E-1	24.671	2.8351E-2	
16	1.0140E-1	3.3100E-1	24.656	3.4398E-2	
17	1.1882E-1	3.3100E-1	24.649	3.6122E-2	
18	1.4416E-1	3.3100E-1	24.644	3.8879E-2	
19	1.6811E-1	3.3100E-1	24.636	4.3049E-2	
20	1.8639E-1	3.3100E-1	24.626	5.0857E-2	
21	1.9654E-1	3.3100E-1	24.612	6.2450E-2	
22	2.0888E-1	3.3100E-1	24.602	7.3157E-2	
23	2.1773E-1	3.3100E-1	24.588	8.9250E-2	
0	0	0	0	0	
====================
 Desorption data
====================
"No."	"Pe/kPa"	"P0/kPa"	"Vd/ml"	"V/ml(STP) g-1"	
1	2.0979E-1	3.3100E-1	24.578	8.0845E-2	
2	1.9966E-1	3.3100E-1	24.560	7.2330E-2	
3	1.8723E-1	3.3100E-1	24.549	6.2403E-2	
4	1.7973E-1	3.3100E-1	24.534	5.2937E-2	
5	1.6209E-1	3.3100E-1	24.523	4.7436E-2	
0	0	0	0	0	
