====================
 System property BELSORP-max Ver1.3.5
====================
"Instrument S/N:"	00462
"Vs/ml:"	24.529
=======================
 Measurement condition
=======================
"Adsorptive:"	Kr
"Meas. Temp./K:"	77.35
"Molecular cross-sectional area:"	0
"Molecular weight of adsorbate:"	0.00
"Equilibrium time/sec:"	0
"Measurement mode:"	2
====================
 Sample information
====================
"Sample weight/g:"	0.53940
"Comment1:"	"2U59"
"Comment2:"	"KLJ"
"Comment3:"	"3rd Run"
"Comment4:"	"Leak amount : -1.000E+0Pa/Min, Vacuum degree before measurement:5.260E-5Pa"
"as/m2 g-1:"	0.0000
"Molecular weight of adsorbent:"	0.00
====================
 Time and dead volume
====================
"Date of measurement:"	20/08/03
"Time of measurement:"	8:31:29
"Slope of dead volume:"	-1.7132E-6
"Intercept of dead volume:"	2.6335E+1
"Average dead volume:"	2.6234E+1
====================
 Adsorption data
====================
"No."	"Pe/kPa"	"P0/kPa"	"Vd/ml"	"V/ml(STP) g-1"	
1	1.9178E-4	3.3100E-1	25.872	-4.5823E-5	
2	3.9131E-4	3.3100E-1	25.828	1.4533E-3	
3	5.0286E-4	3.3100E-1	25.784	2.9867E-3	
4	6.1481E-4	3.3100E-1	25.649	6.6591E-3	
5	1.1624E-3	3.3100E-1	25.332	1.2857E-2	
6	1.9601E-3	3.3100E-1	25.142	1.5617E-2	
7	2.7465E-3	3.3100E-1	25.097	1.6515E-2	
8	7.9958E-3	3.3100E-1	25.063	1.8274E-2	
9	1.5771E-2	3.3100E-1	25.041	1.9456E-2	
10	2.5344E-2	3.3100E-1	25.025	2.0401E-2	
11	3.5164E-2	3.3100E-1	25.014	2.1095E-2	
12	4.3798E-2	3.3100E-1	25.004	2.1648E-2	
13	5.2570E-2	3.3100E-1	24.993	2.2179E-2	
14	6.1349E-2	3.3100E-1	24.985	2.2652E-2	
15	6.9971E-2	3.3100E-1	24.977	2.3163E-2	
16	7.8742E-2	3.3100E-1	24.968	2.3659E-2	
17	9.5306E-2	3.3100E-1	24.958	2.4892E-2	
18	1.0336E-1	3.3100E-1	24.944	3.0779E-2	
19	1.1290E-1	3.3100E-1	24.922	3.6474E-2	
20	1.3119E-1	3.3100E-1	24.912	3.8192E-2	
21	1.4742E-1	3.3100E-1	24.904	3.9818E-2	
22	1.6455E-1	3.3100E-1	24.895	4.1870E-2	
23	1.8094E-1	3.3100E-1	24.886	4.4546E-2	
24	1.9727E-1	3.3100E-1	24.874	4.8344E-2	
25	2.1264E-1	3.3100E-1	24.860	5.8007E-2	
26	2.2266E-1	3.3100E-1	24.844	6.6529E-2	
0	0	0	0	0	
====================
 Desorption data
====================
"No."	"Pe/kPa"	"P0/kPa"	"Vd/ml"	"V/ml(STP) g-1"	
1	2.0755E-1	3.3100E-1	24.836	6.0428E-2	
2	1.9464E-1	3.3100E-1	24.820	5.1106E-2	
3	1.7563E-1	3.3100E-1	24.810	4.7007E-2	
4	1.5783E-1	3.3100E-1	24.801	4.4037E-2	
0	0	0	0	0	
